…
summary_1 =  data_1%>%
             tibble(beta_1 = 0,
                    linear,
                    estimate = map(linear, ~ .x[2,2]),
                    p_value = map(linear, ~ .x[2,5]))%>% 
             unnest(estimate:p_value) %>% 
             select(-linear)
  

summary_1
```

    ## # A tibble: 10,000 x 4
    ##    .                 beta_1 estimate p.value
    ##    <list>             <dbl>    <dbl>   <dbl>
    ##  1 <tibble [30 x 2]>      0  0.296     0.798
    ##  2 <tibble [30 x 2]>      0  0.00648   0.996
    ##  3 <tibble [30 x 2]>      0 -2.16      0.155
    ##  4 <tibble [30 x 2]>      0 -0.454     0.718
    ##  5 <tibble [30 x 2]>      0 -0.514     0.730
    ##  6 <tibble [30 x 2]>      0  1.71      0.243
    ##  7 <tibble [30 x 2]>      0 -1.18      0.322
    ##  8 <tibble [30 x 2]>      0  1.09      0.366
    ##  9 <tibble [30 x 2]>      0  0.806     0.377
    ## 10 <tibble [30 x 2]>      0  2.35      0.131
    ## # ... with 9,990 more rows
…
